Práctica 1: Estadística descriptiva
…
Frecuencia de segmentos de mercado

La tabla refleja la cantidad de vehículos en diferentes categorías,
como compactos, SUV, sedanes, deportivos, entre otros. Esto nos ayuda a
identificar qué tipos de vehículos son más comunes y cómo se relacionan
con las emisiones.

frecuencia_segmento_mercado <- emisiones %>%
  count(`market_segment`) %>%
  arrange(desc(n))

print(frecuencia_segmento_mercado)

## # A tibble: 24 × 2
##    market_segment                  n
##    <chr>                       <int>
##  1 Berlinas-Familiares Medios   3659
##  2 Pequeños                     1700
##  3 Furgoneta Grande             1652
##  4 Todoterreno Pequeño          1452
##  5 Berlinas-Familiares Grandes  1362
##  6 Todoterreno Grande           1192
##  7 Furgoneta Pequeña            1167
##  8 Camión                       1145
##  9 Todoterreno Medio             965
## 10 Monovol. Grande               574
## # ℹ 14 more rows
…
